{
  "serverPort": 3001,
  "serverUrl": "http://localhost:3001",
  "dbUrl": "mongodb+srv://maybelater:zaq789@cloud.t0tmw.mongodb.net/myFirstDatabase?retryWrites=true&w=majority",
  "secretKey": "mern-secret"
}
